{
  // Telemetry
  "telemetry": {
    "diagnostics": false,
    "metrics": false
  },

  // Coding
  "tab_size": 2,
  "use_autoclose": true,
  "inline_completions": {
    "disabled_globs": [
      ".env",
      ".env.*"
    ]
  },
  "format_on_save": "on",
  "formatter": {
    "code_actions": {
      "source.fixAll.eslint": true
      // "source.organizeImports": true
    }
  },
  "languages": {
    "TypeScript": {
      "format_on_save": {
        "external": {
          "command": "prettier",
          "arguments": ["--stdin-filepath", "{buffer_path}"]
        }
      },
      "inlay_hints": {
        "enabled": true,
        "show_parameter_hints": false,
        "show_other_hints": true,
        "show_type_hints": true
      },
      "code_actions_on_format": {
        "source.organizeImports": true
      }
    },
    "JavaScript": {
      "format_on_save": {
        "external": {
          "command": "prettier",
          "arguments": ["--stdin-filepath", "{buffer_path}"]
        }
      },
      "inlay_hints": {
        "enabled": true,
        "show_parameter_hints": false,
        "show_other_hints": true,
        "show_type_hints": true
      },
      "code_actions_on_format": {
        "source.fixAll.eslint": true
      }
    }
  },
  "file_types": {
    "Dockerfile": ["Dockerfile", "Dockerfile.*"],
    "JSON": ["json", "jsonc", "*.code-snippets"]
  },

  // View settings
  "ui_font_family": "Iosevka",
  "ui_font_size": 16,
  "buffer_font_family": "Iosevka",
  "buffer_font_size": 16,
  "buffer_font_features": {
    "calt": true
  },
  "theme": {
    "mode": "system",
    "light": "One Light",
    "dark": "One Dark"
  },
  "soft_wrap": "editor_width",
  "hour_format": "hour24",
  "show_wrap_guides": false,
  "indent_guides": {
    "enabled": true,
    "coloring": "indent_aware"
  },
  "inlay_hints": {
    "enabled": true
  },
  "tab_bar": {
    "show": true
  },
  "scrollbar": {
    "show": "never"
  },
  "project_panel": {
    "button": true,
    "dock": "right",
    "git_status": true
  },
  "outline_panel": {
    "dock": "right"
  },
  "collaboration_panel": {
    "dock": "right"
  }
}
